…
##### tibble数据框

tibble包里的函数tibble()或as_tibble()来创建tibble数据框,install.packages("tibble")安装tibble包.

```r
library(tibble)
mtcars <- as_tibble(mtcars)
mtcars
'''
# A tibble: 32 × 11
  mpg   cyl  disp    hp  drat    wt  qsec
   <dbl> <dbl> <dbl> <dbl> <dbl> <dbl> <dbl>
 1  21       6  160    110  3.9   2.62  16.5
 2  21       6  160    110  3.9   2.88  17.0
 3  22.8     4  108     93  3.85  2.32  18.6
 4  21.4     6  258    110  3.08  3.22  19.4
 5  18.7     8  360    175  3.15  3.44  17.0
 6  18.1     6  225    105  2.76  3.46  20.2
 7  14.3     8  360    245  3.21  3.57  15.8
 8  24.4     4  147.    62  3.69  3.19  20  
 9  22.8     4  141.    95  3.92  3.15  22.9
10  19.2     6  168.   123  3.92  3.44  18.3
# ℹ 22 more rows
# ℹ 4 more variables: vs <dbl>, am <dbl>,
#   gear <dbl>, carb <dbl>
# ℹ Use `print(n = ...)` to see more rows
…
#### 点图

ggplot(data,aes(x=contvar,y=catvar)) +geom_point

```r
library(ggplot2)
> library(dplyr)
> plotdata <- mpg %>%
+   filter(year == "2008") %>%
+   group_by(model) %>%
+   summarize(meanHwy=mean(hwy))
> plotdata
# A tibble: 38 × 2
   model              meanHwy
   <chr>                <dbl>
 1 4runner 4wd           18.5
 2 a4                    29.3
 3 a4 quattro            26.2
 4 a6 quattro            24  
 5 altima                29  
 6 c1500 suburban 2wd    18  
 7 camry                 30  
 8 camry solara          29.7
 9 caravan 2wd           22.2
10 civic                 33.8
# ℹ 28 more rows
# ℹ Use `print(n = ...)` to see more rows
```
…
